#define col_width 24
#define col_height 24
static unsigned char col_bits[] = {
   0x00, 0x00, 0x00, 0x00, 0x00, 0x00, 0xfc, 0x7e, 0x3f, 0xfc, 0x7e, 0x3f,
   0xfc, 0x7e, 0x3f, 0xfc, 0x7e, 0x3f, 0xfc, 0x7e, 0x3f, 0xfc, 0x7e, 0x3f,
   0xfc, 0x7e, 0x3f, 0xfc, 0x7e, 0x3f, 0xfc, 0x7e, 0x3f, 0xfc, 0x7e, 0x3f,
   0xfc, 0x7e, 0x3f, 0xfc, 0x7e, 0x3f, 0xfc, 0x7e, 0x3f, 0xfc, 0x7e, 0x3f,
   0xfc, 0x7e, 0x3f, 0xfc, 0x7e, 0x3f, 0xfc, 0x7e, 0x3f, 0xfc, 0x7e, 0x3f,
   0xfc, 0x7e, 0x3f, 0xfc, 0x7e, 0x3f, 0x00, 0x00, 0x00, 0x00, 0x00, 0x00 };
