#define haskell_width 16
#define haskell_height 16
static unsigned char haskell_bits[] = {
   0x00, 0x00, 0x00, 0x00, 0x18, 0x00, 0x31, 0x00, 0x63, 0x00, 0xc6, 0x00,
   0x8c, 0xf9, 0x18, 0x03, 0x30, 0x06, 0x18, 0xcf, 0x8c, 0x19, 0xc6, 0x30,
   0x63, 0x60, 0x31, 0xc0, 0x00, 0x00, 0x00, 0x00 };
